filer_xqtl.py	 08/23/23 - 16:20:17 - INFO - Running hipFG v1.0.5
filer_xqtl.py	 08/23/23 - 16:20:17 - INFO - hipFG run-date=Wed Aug 23 16:20:17 UTC 2023
filer_xqtl.py	 08/23/23 - 16:20:17 - INFO - Running for FileID=intervals
filer_xqtl.py	 08/23/23 - 16:20:17 - INFO - Specific format provided! Will execute hipFG for: narrowPeak
filer_xqtl.py	 08/23/23 - 16:20:17 - INFO - Checking for compatible data types.
write_awk.py	 08/23/23 - 16:20:17 - ERROR - Column assigned to non-existent new field: SPLIT_CHR was assigned to false.
